{
  "elements": [
    {
      "element": {
        "element_type": "structure_gel:gel_single_pool_element",
        "location": "conjurer_illager:theatre/scene/wizard_of_oz",
        "override_liquid_settings": "ignore_waterlogging",
        "processors": "conjurer_illager:cobble_walls_to_grass",
        "projection": "rigid"
      },
      "weight": 1
    },
    {
      "element": {
        "element_type": "structure_gel:gel_single_pool_element",
        "location": "conjurer_illager:theatre/scene/superman",
        "override_liquid_settings": "ignore_waterlogging",
        "processors": "conjurer_illager:cobble_walls_to_grass",
        "projection": "rigid"
      },
      "weight": 1
    },
    {
      "element": {
        "element_type": "structure_gel:gel_single_pool_element",
        "location": "conjurer_illager:theatre/scene/joker",
        "override_liquid_settings": "ignore_waterlogging",
        "processors": "conjurer_illager:cobble_walls_to_grass",
        "projection": "rigid"
      },
      "weight": 1
    },
    {
      "element": {
        "element_type": "structure_gel:gel_single_pool_element",
        "location": "conjurer_illager:theatre/scene/titanic",
        "override_liquid_settings": "ignore_waterlogging",
        "processors": "conjurer_illager:cobble_walls_to_grass",
        "projection": "rigid"
      },
      "weight": 1
    },
    {
      "element": {
        "element_type": "structure_gel:gel_single_pool_element",
        "location": "conjurer_illager:theatre/scene/indiana_jones",
        "override_liquid_settings": "ignore_waterlogging",
        "processors": "conjurer_illager:cobble_walls_to_grass",
        "projection": "rigid"
      },
      "weight": 1
    }
  ],
  "fallback": "minecraft:empty"
}